{
	"data_total": [
		{
			"pn_no": "1712MM001 ",
			"style_no": "OT12E3010779D(1)              ",
			"cloth_style": "女裝圓領彎夾常規長袖開胸衫              ",
			"qty": 27576,
			"levels": 3,
			"s_date": "2017-11-19T00:00:00.000Z",
			"e_date": "2018-03-31T00:00:00.000Z"
		}, {
			"pn_no": "1712MM002 ",
			"style_no": "OT12E3010822D(1)              ",
			"cloth_style": "女裝圓領彎夾常規長袖開胸衫              ",
			"qty": 58962,
			"levels": 3,
			"s_date": "2017-11-19T00:00:00.000Z",
			"e_date": "2018-03-31T00:00:00.000Z"
		}, {
			"pn_no": "1712PV008 ",
			"style_no": "ON12E3009256D(5)              ",
			"cloth_style": "女裝V領尖夾常規3/4袖開胸衫              ",
			"qty": 8004,
			"levels": 3,
			"s_date": "2017-11-19T00:00:00.000Z",
			"e_date": "2018-03-31T00:00:00.000Z"
		}, {
			"pn_no": "1801KP001 ",
			"style_no": "OJ12E3010887B(11)             ",
			"cloth_style": "女裝圓領彎夾常規長袖開胸衫              ",
			"qty": 3830,
			"levels": 3,
			"s_date": "2017-11-19T00:00:00.000Z",
			"e_date": "2018-03-31T00:00:00.000Z"
		}, {
			"pn_no": "1801KP002 ",
			"style_no": "OJ12E3010887B(11)             ",
			"cloth_style": "女裝圓領彎夾常規長袖開胸衫-SPG'18正季   ",
			"qty": 1880,
			"levels": 3,
			"s_date": "2017-11-19T00:00:00.000Z",
			"e_date": "2018-03-31T00:00:00.000Z"
		}, {
			"pn_no": "1801KP003 ",
			"style_no": "OJ12E3010887B(6)              ",
			"cloth_style": "女裝圓領彎夾常規長袖開胸衫-SUM'18正季   ",
			"qty": 7990,
			"levels": 3,
			"s_date": "2017-11-19T00:00:00.000Z",
			"e_date": "2018-03-31T00:00:00.000Z"
		}, {
			"pn_no": "1801MM001 ",
			"style_no": "OT12E3011103D(2)              ",
			"cloth_style": "肥婆圓領彎夾常規長袖開胸衫              ",
			"qty": 276,
			"levels": 3,
			"s_date": "2017-11-19T00:00:00.000Z",
			"e_date": "2018-03-31T00:00:00.000Z"
		}, {
			"pn_no": "1801MM002 ",
			"style_no": "OT12E3011104D(2)              ",
			"cloth_style": "肥婆圓領彎夾常規長袖開胸衫              ",
			"qty": 192,
			"levels": 3,
			"s_date": "2017-11-19T00:00:00.000Z",
			"e_date": "2018-03-31T00:00:00.000Z"
		}, {
			"pn_no": "1801MP001 ",
			"style_no": "OJ12E3010887B(6)              ",
			"cloth_style": "女裝圓領彎夾常規長袖開胸衫-SPG'18正季   ",
			"qty": 39513,
			"levels": 3,
			"s_date": "2017-11-19T00:00:00.000Z",
			"e_date": "2018-03-31T00:00:00.000Z"
		}, {
			"pn_no": "1801MP002 ",
			"style_no": "OJ12E3010887B(6)              ",
			"cloth_style": "女裝圓領彎夾常規長袖開胸衫-SPG'18正季   ",
			"qty": 6365,
			"levels": 3,
			"s_date": "2017-11-19T00:00:00.000Z",
			"e_date": "2018-03-31T00:00:00.000Z"
		}, {
			"pn_no": "1801MP003 ",
			"style_no": "OJ12E3010887B(6)              ",
			"cloth_style": "女裝圓領彎夾常規長袖開胸衫-SPG'18正季   ",
			"qty": 4431,
			"levels": 3,
			"s_date": "2017-11-19T00:00:00.000Z",
			"e_date": "2018-03-31T00:00:00.000Z"
		}, {
			"pn_no": "1801MP004 ",
			"style_no": "OJ12E3010887B(6)              ",
			"cloth_style": "女裝圓領彎夾常規長袖開胸衫-SPG'18正季   ",
			"qty": 16523,
			"levels": 3,
			"s_date": "2017-11-19T00:00:00.000Z",
			"e_date": "2018-03-31T00:00:00.000Z"
		}, {
			"pn_no": "1801MP005 ",
			"style_no": "OJ12E3010887B(6)              ",
			"cloth_style": "女裝圓領彎夾常規長袖開胸衫-SPG'18正季   ",
			"qty": 38557,
			"levels": 3,
			"s_date": "2017-11-19T00:00:00.000Z",
			"e_date": "2018-03-31T00:00:00.000Z"
		}, {
			"pn_no": "1801MP006 ",
			"style_no": "OJ12E3010887B(6)              ",
			"cloth_style": "女裝圓領彎夾常規長袖開胸衫-SPG'18正季   ",
			"qty": 7228,
			"levels": 3,
			"s_date": "2017-11-19T00:00:00.000Z",
			"e_date": "2018-03-31T00:00:00.000Z"
		}, {
			"pn_no": "1801MP007 ",
			"style_no": "OJ12E3011569PB(7)             ",
			"cloth_style": "女裝圓領彎夾常規長袖開胸衫-SUM'18       ",
			"qty": 1716,
			"levels": 3,
			"s_date": "2017-11-19T00:00:00.000Z",
			"e_date": "2018-03-31T00:00:00.000Z"
		}, {
			"pn_no": "1801MP008 ",
			"style_no": "OJ12E3011858PB(1)             ",
			"cloth_style": "女裝圓領彎夾常規長袖開胸衫-SUM'18       ",
			"qty": 2641,
			"levels": 3,
			"s_date": "2017-11-19T00:00:00.000Z",
			"e_date": "2018-03-31T00:00:00.000Z"
		}, {
			"pn_no": "1801MP009 ",
			"style_no": "OJ12E3011858PB(1)             ",
			"cloth_style": "女裝圓領彎夾常規長袖開胸衫-SUM'18       ",
			"qty": 1512,
			"levels": 3,
			"s_date": "2017-11-19T00:00:00.000Z",
			"e_date": "2018-03-31T00:00:00.000Z"
		}, {
			"pn_no": "1801MP010 ",
			"style_no": "OJ12E3010887B(6)              ",
			"cloth_style": "女裝圓領彎夾常規長袖開胸衫-SUM'18正季   ",
			"qty": 36701,
			"levels": 3,
			"s_date": "2017-11-19T00:00:00.000Z",
			"e_date": "2018-03-31T00:00:00.000Z"
		}, {
			"pn_no": "1801MP011 ",
			"style_no": "OJ12E3010887B(6)              ",
			"cloth_style": "女裝圓領彎夾常規長袖開胸衫-SUM'18正季   ",
			"qty": 8325,
			"levels": 3,
			"s_date": "2017-11-19T00:00:00.000Z",
			"e_date": "2018-03-31T00:00:00.000Z"
		}, {
			"pn_no": "1801MP012 ",
			"style_no": "OJ12E3010887B(6)              ",
			"cloth_style": "女裝圓領彎夾常規長袖開胸衫-SUM'18正季   ",
			"qty": 8765,
			"levels": 3,
			"s_date": "2017-11-19T00:00:00.000Z",
			"e_date": "2018-03-31T00:00:00.000Z"
		}, {
			"pn_no": "1801MP013 ",
			"style_no": "OJ12E3010887B(6)              ",
			"cloth_style": "女裝圓領彎夾常規長袖開胸衫-SUM'18正季   ",
			"qty": 17985,
			"levels": 3,
			"s_date": "2017-11-19T00:00:00.000Z",
			"e_date": "2018-03-31T00:00:00.000Z"
		}, {
			"pn_no": "1801MP014 ",
			"style_no": "OJ12E3010887B(6)              ",
			"cloth_style": "女裝圓領彎夾常規長袖開胸衫-SUM'18正季   ",
			"qty": 8718,
			"levels": 3,
			"s_date": "2017-11-19T00:00:00.000Z",
			"e_date": "2018-03-31T00:00:00.000Z"
		}, {
			"pn_no": "1801PV001 ",
			"style_no": "ON7VE3010728D(8)              ",
			"cloth_style": "女裝V領彎夾短袖開胸衫(SOLID色)          ",
			"qty": 6000,
			"levels": 3,
			"s_date": "2017-11-19T00:00:00.000Z",
			"e_date": "2018-03-31T00:00:00.000Z"
		}, {
			"pn_no": "1801PV002 ",
			"style_no": "ON7VE3010728D(8)              ",
			"cloth_style": "女裝V領彎夾短袖開胸衫(SOLID色)          ",
			"qty": 5500,
			"levels": 3,
			"s_date": "2017-11-19T00:00:00.000Z",
			"e_date": "2018-03-31T00:00:00.000Z"
		}, {
			"pn_no": "1801PV003 ",
			"style_no": "ON7VE3010728D(8)              ",
			"cloth_style": "女裝V領彎夾短袖開胸衫(SOLID色)          ",
			"qty": 6000,
			"levels": 3,
			"s_date": "2017-11-19T00:00:00.000Z",
			"e_date": "2018-03-31T00:00:00.000Z"
		}, {
			"pn_no": "1801PV004 ",
			"style_no": "ON7VE3010728D(8)              ",
			"cloth_style": "女裝V領彎夾短袖開胸衫(HTHR色)           ",
			"qty": 500,
			"levels": 3,
			"s_date": "2017-11-19T00:00:00.000Z",
			"e_date": "2018-03-31T00:00:00.000Z"
		}, {
			"pn_no": "1801PV005 ",
			"style_no": "ON12E3009256D(5)              ",
			"cloth_style": "女裝V領尖夾常規3/4袖開胸衫              ",
			"qty": 500,
			"levels": 3,
			"s_date": "2017-11-19T00:00:00.000Z",
			"e_date": "2018-03-31T00:00:00.000Z"
		}, {
			"pn_no": "1801PV006 ",
			"style_no": "ON12E3009256D(5)              ",
			"cloth_style": "女裝V領尖夾常規3/4袖開胸衫              ",
			"qty": 7000,
			"levels": 3,
			"s_date": "2017-11-19T00:00:00.000Z",
			"e_date": "2018-03-31T00:00:00.000Z"
		}, {
			"pn_no": "1801PV007 ",
			"style_no": "ON7VE3011682(2)               ",
			"cloth_style": "肥婆裝V領彎夾短袖開胸衫(SOLID色)        ",
			"qty": 31506,
			"levels": 3,
			"s_date": "2017-11-19T00:00:00.000Z",
			"e_date": "2018-03-31T00:00:00.000Z"
		}, {
			"pn_no": "1801PV008 ",
			"style_no": "ON7VE3011682(2)               ",
			"cloth_style": "肥婆裝V領彎夾短袖開胸衫(SOLID色)        ",
			"qty": 2050,
			"levels": 3,
			"s_date": "2017-11-19T00:00:00.000Z",
			"e_date": "2018-03-31T00:00:00.000Z"
		}, {
			"pn_no": "1801PV009 ",
			"style_no": "ON7VE3011682(2)               ",
			"cloth_style": "肥婆裝V領彎夾短袖開胸衫(SOLID色)        ",
			"qty": 4884,
			"levels": 3,
			"s_date": "2017-11-19T00:00:00.000Z",
			"e_date": "2018-03-31T00:00:00.000Z"
		}, {
			"pn_no": "1801PV010 ",
			"style_no": "ON7VE3011682(2)               ",
			"cloth_style": "肥婆裝V領彎夾短袖開胸衫(SOLID色)        ",
			"qty": 2110,
			"levels": 3,
			"s_date": "2017-11-19T00:00:00.000Z",
			"e_date": "2018-03-31T00:00:00.000Z"
		}, {
			"pn_no": "1801PV011 ",
			"style_no": "ON7VE3011682(2)               ",
			"cloth_style": "肥婆裝V領彎夾短袖開胸衫(HTHR色)         ",
			"qty": 8556,
			"levels": 3,
			"s_date": "2017-11-19T00:00:00.000Z",
			"e_date": "2018-03-31T00:00:00.000Z"
		}, {
			"pn_no": "1801PV012 ",
			"style_no": "ON7VE3011682(2)               ",
			"cloth_style": "肥婆裝V領彎夾短袖開胸衫(HTHR色)         ",
			"qty": 300,
			"levels": 3,
			"s_date": "2017-11-19T00:00:00.000Z",
			"e_date": "2018-03-31T00:00:00.000Z"
		}, {
			"pn_no": "1801PV013 ",
			"style_no": "ON7VE3011682(2)               ",
			"cloth_style": "肥婆裝V領彎夾短袖開胸衫(HTHR色)         ",
			"qty": 1050,
			"levels": 3,
			"s_date": "2017-11-19T00:00:00.000Z",
			"e_date": "2018-03-31T00:00:00.000Z"
		}, {
			"pn_no": "1801PV014 ",
			"style_no": "ON7VE3011682(2)               ",
			"cloth_style": "肥婆裝V領彎夾短袖開胸衫(HTHR色)         ",
			"qty": 300,
			"levels": 3,
			"s_date": "2017-11-19T00:00:00.000Z",
			"e_date": "2018-03-31T00:00:00.000Z"
		}, {
			"pn_no": "1801PV015 ",
			"style_no": "ON12E3012396D(1)              ",
			"cloth_style": "肥婆碼V領尖夾常規3/4袖開胸衫            ",
			"qty": 8682,
			"levels": 3,
			"s_date": "2017-11-19T00:00:00.000Z",
			"e_date": "2018-03-31T00:00:00.000Z"
		}, {
			"pn_no": "1801PV016 ",
			"style_no": "ON12E3012396D(1)              ",
			"cloth_style": "肥婆碼V領尖夾常規3/4袖開胸衫            ",
			"qty": 904,
			"levels": 3,
			"s_date": "2017-11-19T00:00:00.000Z",
			"e_date": "2018-03-31T00:00:00.000Z"
		}, {
			"pn_no": "1802MP001 ",
			"style_no": "OJ12E3012225P(2)              ",
			"cloth_style": "女裝圓領彎夾常規3/4袖開胸衫             ",
			"qty": 5951,
			"levels": 3,
			"s_date": "2017-11-19T00:00:00.000Z",
			"e_date": "2018-03-31T00:00:00.000Z"
		}, {
			"pn_no": "1802MP005 ",
			"style_no": "OJ12E3012225P(2)              ",
			"cloth_style": "女裝圓領彎夾常規3/4袖開胸衫-SUM'18      ",
			"qty": 1099,
			"levels": 3,
			"s_date": "2017-11-19T00:00:00.000Z",
			"e_date": "2018-03-31T00:00:00.000Z"
		}, {
			"pn_no": "1802MP015 ",
			"style_no": "OJ12E3010887B(6)              ",
			"cloth_style": "女裝圓領彎夾常規長袖開胸衫-SUM'18正季   ",
			"qty": 9665,
			"levels": 3,
			"s_date": "2017-11-19T00:00:00.000Z",
			"e_date": "2018-03-31T00:00:00.000Z"
		}, {
			"pn_no": "1803MP004 ",
			"style_no": "OJ12E3010887B(6)              ",
			"cloth_style": null,
			"qty": 62101,
			"levels": 3,
			"s_date": "2017-11-19T00:00:00.000Z",
			"e_date": "2018-03-31T00:00:00.000Z"
		}, {
			"pn_no": "1803MP005 ",
			"style_no": "OJ12E3010887B(6)              ",
			"cloth_style": "女裝圓領彎夾常規長袖開胸衫-SPG'18正季   ",
			"qty": 2941,
			"levels": 3,
			"s_date": "2017-11-19T00:00:00.000Z",
			"e_date": "2018-03-31T00:00:00.000Z"
		}, {
			"pn_no": "1803MP006 ",
			"style_no": "OJ12E3010887B(6)              ",
			"cloth_style": null,
			"qty": 890,
			"levels": 3,
			"s_date": "2017-11-19T00:00:00.000Z",
			"e_date": "2018-03-31T00:00:00.000Z"
		}, {
			"pn_no": "1803MP007 ",
			"style_no": "OJ12E3010887B(6)              ",
			"cloth_style": null,
			"qty": 1545,
			"levels": 3,
			"s_date": "2017-11-19T00:00:00.000Z",
			"e_date": "2018-03-31T00:00:00.000Z"
		}, {
			"pn_no": "1803MP008 ",
			"style_no": "OJ12E3010887B(6)              ",
			"cloth_style": null,
			"qty": 6977,
			"levels": 3,
			"s_date": "2017-11-19T00:00:00.000Z",
			"e_date": "2018-03-31T00:00:00.000Z"
		}
	],
	"datas_barcode": [
		{
			"barcode": "1000000100        ",
			"factory_id": 16,
			"factory_code": "VK-K-12G                      ",
			"factory_name": "緯興12G                                     ",
			"work_no": 1,
			"work_name": "織機",
			"pn_no": "1712MM001 ",
			"s_date": "2017-12-06T00:00:00.000Z",
			"e_date": "2017-12-30T00:00:00.000Z",
			"qty": 27576,
			"t_workers": 1724,
			"levels": 1,
			"shipment_date": "2018-01-09T00:00:00.000Z"
		}, {
			"barcode": "1000000054        ",
			"factory_id": 24,
			"factory_code": "VK-L-F                        ",
			"factory_name": "緯興幼針縫盤",
			"work_no": 3,
			"work_name": "縫挑",
			"pn_no": "1712MM001 ",
			"s_date": "2017-12-20T00:00:00.000Z",
			"e_date": "2018-01-08T00:00:00.000Z",
			"qty": 27576,
			"t_workers": 920,
			"levels": 2,
			"shipment_date": "2018-01-09T00:00:00.000Z"
		}, {
			"barcode": "1000000008        ",
			"factory_id": 25,
			"factory_code": "VK-P                          ",
			"factory_name": "緯興後整",
			"work_no": 6,
			"work_name": "后整",
			"pn_no": "1712MM001 ",
			"s_date": "2018-01-03T00:00:00.000Z",
			"e_date": "2018-01-09T00:00:00.000Z",
			"qty": 27576,
			"t_workers": 406,
			"levels": 3,
			"shipment_date": "2018-01-09T00:00:00.000Z"
		}, {
			"barcode": "1000000101        ",
			"factory_id": 16,
			"factory_code": "VK-K-12G                      ",
			"factory_name": "緯興12G                                     ",
			"work_no": 1,
			"work_name": "織機",
			"pn_no": "1712MM002 ",
			"s_date": "2017-11-19T00:00:00.000Z",
			"e_date": "2017-12-23T00:00:00.000Z",
			"qty": 58962,
			"t_workers": 3469,
			"levels": 1,
			"shipment_date": "2018-01-09T00:00:00.000Z"
		}, {
			"barcode": "1000000055        ",
			"factory_id": 24,
			"factory_code": "VK-L-F                        ",
			"factory_name": "緯興幼針縫盤",
			"work_no": 3,
			"work_name": "縫挑",
			"pn_no": "1712MM002 ",
			"s_date": "2017-12-08T00:00:00.000Z",
			"e_date": "2018-01-05T00:00:00.000Z",
			"qty": 58962,
			"t_workers": 1966,
			"levels": 2,
			"shipment_date": "2018-01-09T00:00:00.000Z"
		}, {
			"barcode": "1000000009        ",
			"factory_id": 25,
			"factory_code": "VK-P                          ",
			"factory_name": "緯興後整",
			"work_no": 6,
			"work_name": "后整",
			"pn_no": "1712MM002 ",
			"s_date": "2017-12-27T00:00:00.000Z",
			"e_date": "2018-01-09T00:00:00.000Z",
			"qty": 58962,
			"t_workers": 868,
			"levels": 3,
			"shipment_date": "2018-01-09T00:00:00.000Z"
		}, {
			"barcode": "1000000103        ",
			"factory_id": 17,
			"factory_code": "VK-K-14G                      ",
			"factory_name": "緯興14G                                     ",
			"work_no": 1,
			"work_name": "織機",
			"pn_no": "1712PV008 ",
			"s_date": "2017-12-19T00:00:00.000Z",
			"e_date": "2018-01-07T00:00:00.000Z",
			"qty": 8004,
			"t_workers": 572,
			"levels": 1,
			"shipment_date": "2018-01-13T00:00:00.000Z"
		}, {
			"barcode": "1000000057        ",
			"factory_id": 24,
			"factory_code": "VK-L-F                        ",
			"factory_name": "緯興幼針縫盤",
			"work_no": 3,
			"work_name": "縫挑",
			"pn_no": "1712PV008 ",
			"s_date": "2017-12-31T00:00:00.000Z",
			"e_date": "2018-01-12T00:00:00.000Z",
			"qty": 8004,
			"t_workers": 267,
			"levels": 2,
			"shipment_date": "2018-01-13T00:00:00.000Z"
		}, {
			"barcode": "1000000011        ",
			"factory_id": 25,
			"factory_code": "VK-P                          ",
			"factory_name": "緯興後整",
			"work_no": 6,
			"work_name": "后整",
			"pn_no": "1712PV008 ",
			"s_date": "2018-01-09T00:00:00.000Z",
			"e_date": "2018-01-13T00:00:00.000Z",
			"qty": 8004,
			"t_workers": 118,
			"levels": 3,
			"shipment_date": "2018-01-13T00:00:00.000Z"
		}, {
			"barcode": "1000000098        ",
			"factory_id": 16,
			"factory_code": "VK-K-12G                      ",
			"factory_name": "緯興12G                                     ",
			"work_no": 1,
			"work_name": "織機",
			"pn_no": "1801KP001 ",
			"s_date": "2017-12-26T00:00:00.000Z",
			"e_date": "2018-01-04T00:00:00.000Z",
			"qty": 3830,
			"t_workers": 160,
			"levels": 1,
			"shipment_date": "2018-01-09T00:00:00.000Z"
		}, {
			"barcode": "1000000052        ",
			"factory_id": 24,
			"factory_code": "VK-L-F                        ",
			"factory_name": "緯興幼針縫盤",
			"work_no": 3,
			"work_name": "縫挑",
			"pn_no": "1801KP001 ",
			"s_date": "2017-12-31T00:00:00.000Z",
			"e_date": "2018-01-09T00:00:00.000Z",
			"qty": 3830,
			"t_workers": 128,
			"levels": 2,
			"shipment_date": "2018-01-09T00:00:00.000Z"
		}, {
			"barcode": "1000000006        ",
			"factory_id": 25,
			"factory_code": "VK-P                          ",
			"factory_name": "緯興後整",
			"work_no": 6,
			"work_name": "后整",
			"pn_no": "1801KP001 ",
			"s_date": "2018-01-07T00:00:00.000Z",
			"e_date": "2018-01-09T00:00:00.000Z",
			"qty": 3830,
			"t_workers": 57,
			"levels": 3,
			"shipment_date": "2018-01-09T00:00:00.000Z"
		}, {
			"barcode": "1000000099        ",
			"factory_id": 17,
			"factory_code": "VK-K-14G                      ",
			"factory_name": "緯興14G                                     ",
			"work_no": 1,
			"work_name": "織機",
			"pn_no": "1801KP002 ",
			"s_date": "2017-12-29T00:00:00.000Z",
			"e_date": "2018-01-07T00:00:00.000Z",
			"qty": 1880,
			"t_workers": 79,
			"levels": 1,
			"shipment_date": "2018-01-09T00:00:00.000Z"
		}, {
			"barcode": "1000000053        ",
			"factory_id": 24,
			"factory_code": "VK-L-F                        ",
			"factory_name": "緯興幼針縫盤",
			"work_no": 3,
			"work_name": "縫挑",
			"pn_no": "1801KP002 ",
			"s_date": "2018-01-03T00:00:00.000Z",
			"e_date": "2018-01-09T00:00:00.000Z",
			"qty": 1880,
			"t_workers": 63,
			"levels": 2,
			"shipment_date": "2018-01-09T00:00:00.000Z"
		}, {
			"barcode": "1000000007        ",
			"factory_id": 25,
			"factory_code": "VK-P                          ",
			"factory_name": "緯興後整",
			"work_no": 6,
			"work_name": "后整",
			"pn_no": "1801KP002 ",
			"s_date": "2018-01-08T00:00:00.000Z",
			"e_date": "2018-01-09T00:00:00.000Z",
			"qty": 1880,
			"t_workers": 28,
			"levels": 3,
			"shipment_date": "2018-01-09T00:00:00.000Z"
		}, {
			"barcode": "1000000122        ",
			"factory_id": 16,
			"factory_code": "VK-K-12G                      ",
			"factory_name": "緯興12G                                     ",
			"work_no": 1,
			"work_name": "織機",
			"pn_no": "1801KP003 ",
			"s_date": "2018-01-10T00:00:00.000Z",
			"e_date": "2018-01-24T00:00:00.000Z",
			"qty": 7990,
			"t_workers": 348,
			"levels": 1,
			"shipment_date": "2018-01-30T00:00:00.000Z"
		}, {
			"barcode": "1000000076        ",
			"factory_id": 24,
			"factory_code": "VK-L-F                        ",
			"factory_name": "緯興幼針縫盤",
			"work_no": 3,
			"work_name": "縫挑",
			"pn_no": "1801KP003 ",
			"s_date": "2018-01-18T00:00:00.000Z",
			"e_date": "2018-01-30T00:00:00.000Z",
			"qty": 7990,
			"t_workers": 267,
			"levels": 2,
			"shipment_date": "2018-01-30T00:00:00.000Z"
		}, {
			"barcode": "1000000030        ",
			"factory_id": 25,
			"factory_code": "VK-P                          ",
			"factory_name": "緯興後整",
			"work_no": 6,
			"work_name": "后整",
			"pn_no": "1801KP003 ",
			"s_date": "2018-01-29T00:00:00.000Z",
			"e_date": "2018-01-30T00:00:00.000Z",
			"qty": 7990,
			"t_workers": 118,
			"levels": 3,
			"shipment_date": "2018-01-30T00:00:00.000Z"
		}, {
			"barcode": "1000000130        ",
			"factory_id": 17,
			"factory_code": "VK-K-14G                      ",
			"factory_name": "緯興14G                                     ",
			"work_no": 1,
			"work_name": "織機",
			"pn_no": "1801MM001 ",
			"s_date": "2018-01-28T00:00:00.000Z",
			"e_date": "2018-02-06T00:00:00.000Z",
			"qty": 276,
			"t_workers": 22,
			"levels": 1,
			"shipment_date": "2018-02-08T00:00:00.000Z"
		}, {
			"barcode": "1000000084        ",
			"factory_id": 24,
			"factory_code": "VK-L-F                        ",
			"factory_name": "緯興幼針縫盤",
			"work_no": 3,
			"work_name": "縫挑",
			"pn_no": "1801MM001 ",
			"s_date": "2018-02-02T00:00:00.000Z",
			"e_date": "2018-02-08T00:00:00.000Z",
			"qty": 276,
			"t_workers": 10,
			"levels": 2,
			"shipment_date": "2018-02-08T00:00:00.000Z"
		}, {
			"barcode": "1000000038        ",
			"factory_id": 25,
			"factory_code": "VK-P                          ",
			"factory_name": "緯興後整",
			"work_no": 6,
			"work_name": "后整",
			"pn_no": "1801MM001 ",
			"s_date": "2018-02-08T00:00:00.000Z",
			"e_date": "2018-02-08T00:00:00.000Z",
			"qty": 276,
			"t_workers": 5,
			"levels": 3,
			"shipment_date": "2018-02-08T00:00:00.000Z"
		}, {
			"barcode": "1000000131        ",
			"factory_id": 17,
			"factory_code": "VK-K-14G                      ",
			"factory_name": "緯興14G                                     ",
			"work_no": 1,
			"work_name": "織機",
			"pn_no": "1801MM002 ",
			"s_date": "2018-01-28T00:00:00.000Z",
			"e_date": "2018-02-06T00:00:00.000Z",
			"qty": 192,
			"t_workers": 12,
			"levels": 1,
			"shipment_date": "2018-02-08T00:00:00.000Z"
		}, {
			"barcode": "1000000085        ",
			"factory_id": 24,
			"factory_code": "VK-L-F                        ",
			"factory_name": "緯興幼針縫盤",
			"work_no": 3,
			"work_name": "縫挑",
			"pn_no": "1801MM002 ",
			"s_date": "2018-02-02T00:00:00.000Z",
			"e_date": "2018-02-08T00:00:00.000Z",
			"qty": 192,
			"t_workers": 7,
			"levels": 2,
			"shipment_date": "2018-02-08T00:00:00.000Z"
		}, {
			"barcode": "1000000039        ",
			"factory_id": 25,
			"factory_code": "VK-P                          ",
			"factory_name": "緯興後整",
			"work_no": 6,
			"work_name": "后整",
			"pn_no": "1801MM002 ",
			"s_date": "2018-02-08T00:00:00.000Z",
			"e_date": "2018-02-08T00:00:00.000Z",
			"qty": 192,
			"t_workers": 3,
			"levels": 3,
			"shipment_date": "2018-02-08T00:00:00.000Z"
		}, {
			"barcode": "1000000093        ",
			"factory_id": 16,
			"factory_code": "VK-K-12G                      ",
			"factory_name": "緯興12G                                     ",
			"work_no": 1,
			"work_name": "織機",
			"pn_no": "1801MP001 ",
			"s_date": "2017-11-28T00:00:00.000Z",
			"e_date": "2017-12-22T00:00:00.000Z",
			"qty": 39513,
			"t_workers": 1718,
			"levels": 1,
			"shipment_date": "2018-01-06T00:00:00.000Z"
		}, {
			"barcode": "1000000047        ",
			"factory_id": 24,
			"factory_code": "VK-L-F                        ",
			"factory_name": "緯興幼針縫盤",
			"work_no": 3,
			"work_name": "縫挑",
			"pn_no": "1801MP001 ",
			"s_date": "2017-12-10T00:00:00.000Z",
			"e_date": "2018-01-03T00:00:00.000Z",
			"qty": 39513,
			"t_workers": 1318,
			"levels": 2,
			"shipment_date": "2018-01-06T00:00:00.000Z"
		}, {
			"barcode": "1000000001        ",
			"factory_id": 25,
			"factory_code": "VK-P                          ",
			"factory_name": "緯興後整",
			"work_no": 6,
			"work_name": "后整",
			"pn_no": "1801MP001 ",
			"s_date": "2017-12-27T00:00:00.000Z",
			"e_date": "2018-01-06T00:00:00.000Z",
			"qty": 39513,
			"t_workers": 582,
			"levels": 3,
			"shipment_date": "2018-01-06T00:00:00.000Z"
		}, {
			"barcode": "1000000094        ",
			"factory_id": 16,
			"factory_code": "VK-K-12G                      ",
			"factory_name": "緯興12G                                     ",
			"work_no": 1,
			"work_name": "織機",
			"pn_no": "1801MP002 ",
			"s_date": "2017-12-17T00:00:00.000Z",
			"e_date": "2017-12-31T00:00:00.000Z",
			"qty": 6365,
			"t_workers": 277,
			"levels": 1,
			"shipment_date": "2018-01-06T00:00:00.000Z"
		}, {
			"barcode": "1000000048        ",
			"factory_id": 24,
			"factory_code": "VK-L-F                        ",
			"factory_name": "緯興幼針縫盤",
			"work_no": 3,
			"work_name": "縫挑",
			"pn_no": "1801MP002 ",
			"s_date": "2017-12-25T00:00:00.000Z",
			"e_date": "2018-01-06T00:00:00.000Z",
			"qty": 6365,
			"t_workers": 213,
			"levels": 2,
			"shipment_date": "2018-01-06T00:00:00.000Z"
		}, {
			"barcode": "1000000002        ",
			"factory_id": 25,
			"factory_code": "VK-P                          ",
			"factory_name": "緯興後整",
			"work_no": 6,
			"work_name": "后整",
			"pn_no": "1801MP002 ",
			"s_date": "2018-01-05T00:00:00.000Z",
			"e_date": "2018-01-06T00:00:00.000Z",
			"qty": 6365,
			"t_workers": 94,
			"levels": 3,
			"shipment_date": "2018-01-06T00:00:00.000Z"
		}, {
			"barcode": "1000000097        ",
			"factory_id": 16,
			"factory_code": "VK-K-12G                      ",
			"factory_name": "緯興12G                                     ",
			"work_no": 1,
			"work_name": "織機",
			"pn_no": "1801MP003 ",
			"s_date": "2017-12-26T00:00:00.000Z",
			"e_date": "2018-01-04T00:00:00.000Z",
			"qty": 4431,
			"t_workers": 193,
			"levels": 1,
			"shipment_date": "2018-01-09T00:00:00.000Z"
		}, {
			"barcode": "1000000051        ",
			"factory_id": 24,
			"factory_code": "VK-L-F                        ",
			"factory_name": "緯興幼針縫盤",
			"work_no": 3,
			"work_name": "縫挑",
			"pn_no": "1801MP003 ",
			"s_date": "2017-12-31T00:00:00.000Z",
			"e_date": "2018-01-09T00:00:00.000Z",
			"qty": 4431,
			"t_workers": 148,
			"levels": 2,
			"shipment_date": "2018-01-09T00:00:00.000Z"
		}, {
			"barcode": "1000000005        ",
			"factory_id": 25,
			"factory_code": "VK-P                          ",
			"factory_name": "緯興後整",
			"work_no": 6,
			"work_name": "后整",
			"pn_no": "1801MP003 ",
			"s_date": "2018-01-07T00:00:00.000Z",
			"e_date": "2018-01-09T00:00:00.000Z",
			"qty": 4431,
			"t_workers": 66,
			"levels": 3,
			"shipment_date": "2018-01-09T00:00:00.000Z"
		}, {
			"barcode": "1000000102        ",
			"factory_id": 16,
			"factory_code": "VK-K-12G                      ",
			"factory_name": "緯興12G                                     ",
			"work_no": 1,
			"work_name": "織機",
			"pn_no": "1801MP004 ",
			"s_date": "2017-12-11T00:00:00.000Z",
			"e_date": "2017-12-30T00:00:00.000Z",
			"qty": 16523,
			"t_workers": 719,
			"levels": 1,
			"shipment_date": "2018-01-10T00:00:00.000Z"
		}, {
			"barcode": "1000000056        ",
			"factory_id": 24,
			"factory_code": "VK-L-F                        ",
			"factory_name": "緯興幼針縫盤",
			"work_no": 3,
			"work_name": "縫挑",
			"pn_no": "1801MP004 ",
			"s_date": "2017-12-22T00:00:00.000Z",
			"e_date": "2018-01-07T00:00:00.000Z",
			"qty": 16523,
			"t_workers": 551,
			"levels": 2,
			"shipment_date": "2018-01-10T00:00:00.000Z"
		}, {
			"barcode": "1000000010        ",
			"factory_id": 25,
			"factory_code": "VK-P                          ",
			"factory_name": "緯興後整",
			"work_no": 6,
			"work_name": "后整",
			"pn_no": "1801MP004 ",
			"s_date": "2018-01-03T00:00:00.000Z",
			"e_date": "2018-01-10T00:00:00.000Z",
			"qty": 16523,
			"t_workers": 243,
			"levels": 3,
			"shipment_date": "2018-01-10T00:00:00.000Z"
		}, {
			"barcode": "1000000095        ",
			"factory_id": 17,
			"factory_code": "VK-K-14G                      ",
			"factory_name": "緯興14G                                     ",
			"work_no": 1,
			"work_name": "織機",
			"pn_no": "1801MP005 ",
			"s_date": "2017-11-28T00:00:00.000Z",
			"e_date": "2017-12-22T00:00:00.000Z",
			"qty": 38557,
			"t_workers": 1677,
			"levels": 1,
			"shipment_date": "2018-01-06T00:00:00.000Z"
		}, {
			"barcode": "1000000049        ",
			"factory_id": 24,
			"factory_code": "VK-L-F                        ",
			"factory_name": "緯興幼針縫盤",
			"work_no": 3,
			"work_name": "縫挑",
			"pn_no": "1801MP005 ",
			"s_date": "2017-12-10T00:00:00.000Z",
			"e_date": "2018-01-03T00:00:00.000Z",
			"qty": 38557,
			"t_workers": 1286,
			"levels": 2,
			"shipment_date": "2018-01-06T00:00:00.000Z"
		}, {
			"barcode": "1000000003        ",
			"factory_id": 25,
			"factory_code": "VK-P                          ",
			"factory_name": "緯興後整",
			"work_no": 6,
			"work_name": "后整",
			"pn_no": "1801MP005 ",
			"s_date": "2017-12-27T00:00:00.000Z",
			"e_date": "2018-01-06T00:00:00.000Z",
			"qty": 38557,
			"t_workers": 568,
			"levels": 3,
			"shipment_date": "2018-01-06T00:00:00.000Z"
		}, {
			"barcode": "1000000096        ",
			"factory_id": 17,
			"factory_code": "VK-K-14G                      ",
			"factory_name": "緯興14G                                     ",
			"work_no": 1,
			"work_name": "織機",
			"pn_no": "1801MP006 ",
			"s_date": "2017-12-16T00:00:00.000Z",
			"e_date": "2017-12-30T00:00:00.000Z",
			"qty": 7228,
			"t_workers": 315,
			"levels": 1,
			"shipment_date": "2018-01-06T00:00:00.000Z"
		}, {
			"barcode": "1000000050        ",
			"factory_id": 24,
			"factory_code": "VK-L-F                        ",
			"factory_name": "緯興幼針縫盤",
			"work_no": 3,
			"work_name": "縫挑",
			"pn_no": "1801MP006 ",
			"s_date": "2017-12-24T00:00:00.000Z",
			"e_date": "2018-01-05T00:00:00.000Z",
			"qty": 7228,
			"t_workers": 241,
			"levels": 2,
			"shipment_date": "2018-01-06T00:00:00.000Z"
		}, {
			"barcode": "1000000004        ",
			"factory_id": 25,
			"factory_code": "VK-P                          ",
			"factory_name": "緯興後整",
			"work_no": 6,
			"work_name": "后整",
			"pn_no": "1801MP006 ",
			"s_date": "2018-01-04T00:00:00.000Z",
			"e_date": "2018-01-06T00:00:00.000Z",
			"qty": 7228,
			"t_workers": 107,
			"levels": 3,
			"shipment_date": "2018-01-06T00:00:00.000Z"
		}, {
			"barcode": "1000000120        ",
			"factory_id": 16,
			"factory_code": "VK-K-12G                      ",
			"factory_name": "緯興12G                                     ",
			"work_no": 1,
			"work_name": "織機",
			"pn_no": "1801MP007 ",
			"s_date": "2018-01-16T00:00:00.000Z",
			"e_date": "2018-01-24T00:00:00.000Z",
			"qty": 1716,
			"t_workers": 72,
			"levels": 1,
			"shipment_date": "2018-01-27T00:00:00.000Z"
		}, {
			"barcode": "1000000074        ",
			"factory_id": 24,
			"factory_code": "VK-L-F                        ",
			"factory_name": "緯興幼針縫盤",
			"work_no": 3,
			"work_name": "縫挑",
			"pn_no": "1801MP007 ",
			"s_date": "2018-01-21T00:00:00.000Z",
			"e_date": "2018-01-27T00:00:00.000Z",
			"qty": 1716,
			"t_workers": 58,
			"levels": 2,
			"shipment_date": "2018-01-27T00:00:00.000Z"
		}, {
			"barcode": "1000000028        ",
			"factory_id": 25,
			"factory_code": "VK-P                          ",
			"factory_name": "緯興後整",
			"work_no": 6,
			"work_name": "后整",
			"pn_no": "1801MP007 ",
			"s_date": "2018-01-26T00:00:00.000Z",
			"e_date": "2018-01-27T00:00:00.000Z",
			"qty": 1716,
			"t_workers": 26,
			"levels": 3,
			"shipment_date": "2018-01-27T00:00:00.000Z"
		}, {
			"barcode": "1000000121        ",
			"factory_id": 16,
			"factory_code": "VK-K-12G                      ",
			"factory_name": "緯興12G                                     ",
			"work_no": 1,
			"work_name": "織機",
			"pn_no": "1801MP008 ",
			"s_date": "2018-01-13T00:00:00.000Z",
			"e_date": "2018-01-22T00:00:00.000Z",
			"qty": 2641,
			"t_workers": 102,
			"levels": 1,
			"shipment_date": "2018-01-27T00:00:00.000Z"
		}, {
			"barcode": "1000000075        ",
			"factory_id": 24,
			"factory_code": "VK-L-F                        ",
			"factory_name": "緯興幼針縫盤",
			"work_no": 3,
			"work_name": "縫挑",
			"pn_no": "1801MP008 ",
			"s_date": "2018-01-18T00:00:00.000Z",
			"e_date": "2018-01-27T00:00:00.000Z",
			"qty": 2641,
			"t_workers": 89,
			"levels": 2,
			"shipment_date": "2018-01-27T00:00:00.000Z"
		}, {
			"barcode": "1000000029        ",
			"factory_id": 25,
			"factory_code": "VK-P                          ",
			"factory_name": "緯興後整",
			"work_no": 6,
			"work_name": "后整",
			"pn_no": "1801MP008 ",
			"s_date": "2018-01-25T00:00:00.000Z",
			"e_date": "2018-01-27T00:00:00.000Z",
			"qty": 2641,
			"t_workers": 39,
			"levels": 3,
			"shipment_date": "2018-01-27T00:00:00.000Z"
		}, {
			"barcode": "1000000124        ",
			"factory_id": 16,
			"factory_code": "VK-K-12G                      ",
			"factory_name": "緯興12G                                     ",
			"work_no": 1,
			"work_name": "織機",
			"pn_no": "1801MP009 ",
			"s_date": "2018-01-18T00:00:00.000Z",
			"e_date": "2018-01-27T00:00:00.000Z",
			"qty": 1512,
			"t_workers": 59,
			"levels": 1,
			"shipment_date": "2018-01-31T00:00:00.000Z"
		}, {
			"barcode": "1000000078        ",
			"factory_id": 24,
			"factory_code": "VK-L-F                        ",
			"factory_name": "緯興幼針縫盤",
			"work_no": 3,
			"work_name": "縫挑",
			"pn_no": "1801MP009 ",
			"s_date": "2018-01-24T00:00:00.000Z",
			"e_date": "2018-01-30T00:00:00.000Z",
			"qty": 1512,
			"t_workers": 51,
			"levels": 2,
			"shipment_date": "2018-01-31T00:00:00.000Z"
		}, {
			"barcode": "1000000032        ",
			"factory_id": 25,
			"factory_code": "VK-P                          ",
			"factory_name": "緯興後整",
			"work_no": 6,
			"work_name": "后整",
			"pn_no": "1801MP009 ",
			"s_date": "2018-01-29T00:00:00.000Z",
			"e_date": "2018-01-31T00:00:00.000Z",
			"qty": 1512,
			"t_workers": 23,
			"levels": 3,
			"shipment_date": "2018-01-31T00:00:00.000Z"
		}, {
			"barcode": "1000000125        ",
			"factory_id": 16,
			"factory_code": "VK-K-12G                      ",
			"factory_name": "緯興12G                                     ",
			"work_no": 1,
			"work_name": "織機",
			"pn_no": "1801MP010 ",
			"s_date": "2017-12-28T00:00:00.000Z",
			"e_date": "2018-01-21T00:00:00.000Z",
			"qty": 36701,
			"t_workers": 1596,
			"levels": 1,
			"shipment_date": "2018-02-03T00:00:00.000Z"
		}, {
			"barcode": "1000000079        ",
			"factory_id": 24,
			"factory_code": "VK-L-F                        ",
			"factory_name": "緯興幼針縫盤",
			"work_no": 3,
			"work_name": "縫挑",
			"pn_no": "1801MP010 ",
			"s_date": "2018-01-09T00:00:00.000Z",
			"e_date": "2018-02-01T00:00:00.000Z",
			"qty": 36701,
			"t_workers": 1224,
			"levels": 2,
			"shipment_date": "2018-02-03T00:00:00.000Z"
		}, {
			"barcode": "1000000033        ",
			"factory_id": 25,
			"factory_code": "VK-P                          ",
			"factory_name": "緯興後整",
			"work_no": 6,
			"work_name": "后整",
			"pn_no": "1801MP010 ",
			"s_date": "2018-01-25T00:00:00.000Z",
			"e_date": "2018-02-03T00:00:00.000Z",
			"qty": 36701,
			"t_workers": 540,
			"levels": 3,
			"shipment_date": "2018-02-03T00:00:00.000Z"
		}, {
			"barcode": "1000000126        ",
			"factory_id": 16,
			"factory_code": "VK-K-12G                      ",
			"factory_name": "緯興12G                                     ",
			"work_no": 1,
			"work_name": "織機",
			"pn_no": "1801MP011 ",
			"s_date": "2018-01-13T00:00:00.000Z",
			"e_date": "2018-01-27T00:00:00.000Z",
			"qty": 8325,
			"t_workers": 362,
			"levels": 1,
			"shipment_date": "2018-02-03T00:00:00.000Z"
		}, {
			"barcode": "1000000080        ",
			"factory_id": 24,
			"factory_code": "VK-L-F                        ",
			"factory_name": "緯興幼針縫盤",
			"work_no": 3,
			"work_name": "縫挑",
			"pn_no": "1801MP011 ",
			"s_date": "2018-01-21T00:00:00.000Z",
			"e_date": "2018-02-02T00:00:00.000Z",
			"qty": 8325,
			"t_workers": 278,
			"levels": 2,
			"shipment_date": "2018-02-03T00:00:00.000Z"
		}, {
			"barcode": "1000000034        ",
			"factory_id": 25,
			"factory_code": "VK-P                          ",
			"factory_name": "緯興後整",
			"work_no": 6,
			"work_name": "后整",
			"pn_no": "1801MP011 ",
			"s_date": "2018-01-30T00:00:00.000Z",
			"e_date": "2018-02-03T00:00:00.000Z",
			"qty": 8325,
			"t_workers": 123,
			"levels": 3,
			"shipment_date": "2018-02-03T00:00:00.000Z"
		}, {
			"barcode": "1000000127        ",
			"factory_id": 16,
			"factory_code": "VK-K-12G                      ",
			"factory_name": "緯興12G                                     ",
			"work_no": 1,
			"work_name": "織機",
			"pn_no": "1801MP012 ",
			"s_date": "2018-01-13T00:00:00.000Z",
			"e_date": "2018-01-27T00:00:00.000Z",
			"qty": 8765,
			"t_workers": 382,
			"levels": 1,
			"shipment_date": "2018-02-03T00:00:00.000Z"
		}, {
			"barcode": "1000000081        ",
			"factory_id": 24,
			"factory_code": "VK-L-F                        ",
			"factory_name": "緯興幼針縫盤",
			"work_no": 3,
			"work_name": "縫挑",
			"pn_no": "1801MP012 ",
			"s_date": "2018-01-21T00:00:00.000Z",
			"e_date": "2018-02-02T00:00:00.000Z",
			"qty": 8765,
			"t_workers": 293,
			"levels": 2,
			"shipment_date": "2018-02-03T00:00:00.000Z"
		}, {
			"barcode": "1000000035        ",
			"factory_id": 25,
			"factory_code": "VK-P                          ",
			"factory_name": "緯興後整",
			"work_no": 6,
			"work_name": "后整",
			"pn_no": "1801MP012 ",
			"s_date": "2018-01-30T00:00:00.000Z",
			"e_date": "2018-02-03T00:00:00.000Z",
			"qty": 8765,
			"t_workers": 129,
			"levels": 3,
			"shipment_date": "2018-02-03T00:00:00.000Z"
		}, {
			"barcode": "1000000128        ",
			"factory_id": 16,
			"factory_code": "VK-K-12G                      ",
			"factory_name": "緯興12G                                     ",
			"work_no": 1,
			"work_name": "織機",
			"pn_no": "1801MP013 ",
			"s_date": "2018-01-04T00:00:00.000Z",
			"e_date": "2018-01-23T00:00:00.000Z",
			"qty": 17985,
			"t_workers": 782,
			"levels": 1,
			"shipment_date": "2018-02-03T00:00:00.000Z"
		}, {
			"barcode": "1000000082        ",
			"factory_id": 24,
			"factory_code": "VK-L-F                        ",
			"factory_name": "緯興幼針縫盤",
			"work_no": 3,
			"work_name": "縫挑",
			"pn_no": "1801MP013 ",
			"s_date": "2018-01-15T00:00:00.000Z",
			"e_date": "2018-01-31T00:00:00.000Z",
			"qty": 17985,
			"t_workers": 600,
			"levels": 2,
			"shipment_date": "2018-02-03T00:00:00.000Z"
		}, {
			"barcode": "1000000036        ",
			"factory_id": 25,
			"factory_code": "VK-P                          ",
			"factory_name": "緯興後整",
			"work_no": 6,
			"work_name": "后整",
			"pn_no": "1801MP013 ",
			"s_date": "2018-01-27T00:00:00.000Z",
			"e_date": "2018-02-03T00:00:00.000Z",
			"qty": 17985,
			"t_workers": 265,
			"levels": 3,
			"shipment_date": "2018-02-03T00:00:00.000Z"
		}, {
			"barcode": "1000000123        ",
			"factory_id": 16,
			"factory_code": "VK-K-12G                      ",
			"factory_name": "緯興12G                                     ",
			"work_no": 1,
			"work_name": "織機",
			"pn_no": "1801MP014 ",
			"s_date": "2018-01-09T00:00:00.000Z",
			"e_date": "2018-01-23T00:00:00.000Z",
			"qty": 8718,
			"t_workers": 380,
			"levels": 1,
			"shipment_date": "2018-01-30T00:00:00.000Z"
		}, {
			"barcode": "1000000077        ",
			"factory_id": 24,
			"factory_code": "VK-L-F                        ",
			"factory_name": "緯興幼針縫盤",
			"work_no": 3,
			"work_name": "縫挑",
			"pn_no": "1801MP014 ",
			"s_date": "2018-01-17T00:00:00.000Z",
			"e_date": "2018-01-29T00:00:00.000Z",
			"qty": 8718,
			"t_workers": 291,
			"levels": 2,
			"shipment_date": "2018-01-30T00:00:00.000Z"
		}, {
			"barcode": "1000000031        ",
			"factory_id": 25,
			"factory_code": "VK-P                          ",
			"factory_name": "緯興後整",
			"work_no": 6,
			"work_name": "后整",
			"pn_no": "1801MP014 ",
			"s_date": "2018-01-26T00:00:00.000Z",
			"e_date": "2018-01-30T00:00:00.000Z",
			"qty": 8718,
			"t_workers": 129,
			"levels": 3,
			"shipment_date": "2018-01-30T00:00:00.000Z"
		}, {
			"barcode": "1000000104        ",
			"factory_id": 22,
			"factory_code": "VK-K-E3.5.2                   ",
			"factory_name": "緯興E3.5.2                                  ",
			"work_no": 1,
			"work_name": "織機",
			"pn_no": "1801PV001 ",
			"s_date": "2018-01-05T00:00:00.000Z",
			"e_date": "2018-01-14T00:00:00.000Z",
			"qty": 6000,
			"t_workers": 137,
			"levels": 1,
			"shipment_date": "2018-01-20T00:00:00.000Z"
		}, {
			"barcode": "1000000058        ",
			"factory_id": 23,
			"factory_code": "VK-L-C                        ",
			"factory_name": "緯興粗針縫盤",
			"work_no": 3,
			"work_name": "縫挑",
			"pn_no": "1801PV001 ",
			"s_date": "2018-01-10T00:00:00.000Z",
			"e_date": "2018-01-19T00:00:00.000Z",
			"qty": 6000,
			"t_workers": 150,
			"levels": 2,
			"shipment_date": "2018-01-20T00:00:00.000Z"
		}, {
			"barcode": "1000000012        ",
			"factory_id": 25,
			"factory_code": "VK-P                          ",
			"factory_name": "緯興後整",
			"work_no": 6,
			"work_name": "后整",
			"pn_no": "1801PV001 ",
			"s_date": "2018-01-18T00:00:00.000Z",
			"e_date": "2018-01-20T00:00:00.000Z",
			"qty": 6000,
			"t_workers": 89,
			"levels": 3,
			"shipment_date": "2018-01-20T00:00:00.000Z"
		}, {
			"barcode": "1000000105        ",
			"factory_id": 22,
			"factory_code": "VK-K-E3.5.2                   ",
			"factory_name": "緯興E3.5.2                                  ",
			"work_no": 1,
			"work_name": "織機",
			"pn_no": "1801PV002 ",
			"s_date": "2018-01-06T00:00:00.000Z",
			"e_date": "2018-01-15T00:00:00.000Z",
			"qty": 5500,
			"t_workers": 125,
			"levels": 1,
			"shipment_date": "2018-01-20T00:00:00.000Z"
		}, {
			"barcode": "1000000059        ",
			"factory_id": 23,
			"factory_code": "VK-L-C                        ",
			"factory_name": "緯興粗針縫盤",
			"work_no": 3,
			"work_name": "縫挑",
			"pn_no": "1801PV002 ",
			"s_date": "2018-01-11T00:00:00.000Z",
			"e_date": "2018-01-20T00:00:00.000Z",
			"qty": 5500,
			"t_workers": 138,
			"levels": 2,
			"shipment_date": "2018-01-20T00:00:00.000Z"
		}, {
			"barcode": "1000000013        ",
			"factory_id": 25,
			"factory_code": "VK-P                          ",
			"factory_name": "緯興後整",
			"work_no": 6,
			"work_name": "后整",
			"pn_no": "1801PV002 ",
			"s_date": "2018-01-18T00:00:00.000Z",
			"e_date": "2018-01-20T00:00:00.000Z",
			"qty": 5500,
			"t_workers": 81,
			"levels": 3,
			"shipment_date": "2018-01-20T00:00:00.000Z"
		}, {
			"barcode": "1000000106        ",
			"factory_id": 22,
			"factory_code": "VK-K-E3.5.2                   ",
			"factory_name": "緯興E3.5.2                                  ",
			"work_no": 1,
			"work_name": "織機",
			"pn_no": "1801PV003 ",
			"s_date": "2018-01-05T00:00:00.000Z",
			"e_date": "2018-01-14T00:00:00.000Z",
			"qty": 6000,
			"t_workers": 137,
			"levels": 1,
			"shipment_date": "2018-01-20T00:00:00.000Z"
		}, {
			"barcode": "1000000060        ",
			"factory_id": 23,
			"factory_code": "VK-L-C                        ",
			"factory_name": "緯興粗針縫盤",
			"work_no": 3,
			"work_name": "縫挑",
			"pn_no": "1801PV003 ",
			"s_date": "2018-01-10T00:00:00.000Z",
			"e_date": "2018-01-19T00:00:00.000Z",
			"qty": 6000,
			"t_workers": 150,
			"levels": 2,
			"shipment_date": "2018-01-20T00:00:00.000Z"
		}, {
			"barcode": "1000000014        ",
			"factory_id": 25,
			"factory_code": "VK-P                          ",
			"factory_name": "緯興後整",
			"work_no": 6,
			"work_name": "后整",
			"pn_no": "1801PV003 ",
			"s_date": "2018-01-18T00:00:00.000Z",
			"e_date": "2018-01-20T00:00:00.000Z",
			"qty": 6000,
			"t_workers": 89,
			"levels": 3,
			"shipment_date": "2018-01-20T00:00:00.000Z"
		}, {
			"barcode": "1000000107        ",
			"factory_id": 22,
			"factory_code": "VK-K-E3.5.2                   ",
			"factory_name": "緯興E3.5.2                                  ",
			"work_no": 1,
			"work_name": "織機",
			"pn_no": "1801PV004 ",
			"s_date": "2018-01-09T00:00:00.000Z",
			"e_date": "2018-01-18T00:00:00.000Z",
			"qty": 500,
			"t_workers": 12,
			"levels": 1,
			"shipment_date": "2018-01-20T00:00:00.000Z"
		}, {
			"barcode": "1000000061        ",
			"factory_id": 23,
			"factory_code": "VK-L-C                        ",
			"factory_name": "緯興粗針縫盤",
			"work_no": 3,
			"work_name": "縫挑",
			"pn_no": "1801PV004 ",
			"s_date": "2018-01-14T00:00:00.000Z",
			"e_date": "2018-01-20T00:00:00.000Z",
			"qty": 500,
			"t_workers": 13,
			"levels": 2,
			"shipment_date": "2018-01-20T00:00:00.000Z"
		}, {
			"barcode": "1000000015        ",
			"factory_id": 25,
			"factory_code": "VK-P                          ",
			"factory_name": "緯興後整",
			"work_no": 6,
			"work_name": "后整",
			"pn_no": "1801PV004 ",
			"s_date": "2018-01-19T00:00:00.000Z",
			"e_date": "2018-01-20T00:00:00.000Z",
			"qty": 500,
			"t_workers": 8,
			"levels": 3,
			"shipment_date": "2018-01-20T00:00:00.000Z"
		}, {
			"barcode": "1000000108        ",
			"factory_id": 17,
			"factory_code": "VK-K-14G                      ",
			"factory_name": "緯興14G                                     ",
			"work_no": 1,
			"work_name": "織機",
			"pn_no": "1801PV005 ",
			"s_date": "2018-01-10T00:00:00.000Z",
			"e_date": "2018-01-18T00:00:00.000Z",
			"qty": 500,
			"t_workers": 36,
			"levels": 1,
			"shipment_date": "2018-01-20T00:00:00.000Z"
		}, {
			"barcode": "1000000062        ",
			"factory_id": 24,
			"factory_code": "VK-L-F                        ",
			"factory_name": "緯興幼針縫盤",
			"work_no": 3,
			"work_name": "縫挑",
			"pn_no": "1801PV005 ",
			"s_date": "2018-01-14T00:00:00.000Z",
			"e_date": "2018-01-20T00:00:00.000Z",
			"qty": 500,
			"t_workers": 17,
			"levels": 2,
			"shipment_date": "2018-01-20T00:00:00.000Z"
		}, {
			"barcode": "1000000016        ",
			"factory_id": 25,
			"factory_code": "VK-P                          ",
			"factory_name": "緯興後整",
			"work_no": 6,
			"work_name": "后整",
			"pn_no": "1801PV005 ",
			"s_date": "2018-01-19T00:00:00.000Z",
			"e_date": "2018-01-20T00:00:00.000Z",
			"qty": 500,
			"t_workers": 8,
			"levels": 3,
			"shipment_date": "2018-01-20T00:00:00.000Z"
		}, {
			"barcode": "1000000119        ",
			"factory_id": 17,
			"factory_code": "VK-K-14G                      ",
			"factory_name": "緯興14G                                     ",
			"work_no": 1,
			"work_name": "織機",
			"pn_no": "1801PV006 ",
			"s_date": "2018-01-06T00:00:00.000Z",
			"e_date": "2018-01-20T00:00:00.000Z",
			"qty": 7000,
			"t_workers": 500,
			"levels": 1,
			"shipment_date": "2018-01-27T00:00:00.000Z"
		}, {
			"barcode": "1000000073        ",
			"factory_id": 24,
			"factory_code": "VK-L-F                        ",
			"factory_name": "緯興幼針縫盤",
			"work_no": 3,
			"work_name": "縫挑",
			"pn_no": "1801PV006 ",
			"s_date": "2018-01-14T00:00:00.000Z",
			"e_date": "2018-01-26T00:00:00.000Z",
			"qty": 7000,
			"t_workers": 234,
			"levels": 2,
			"shipment_date": "2018-01-27T00:00:00.000Z"
		}, {
			"barcode": "1000000027        ",
			"factory_id": 25,
			"factory_code": "VK-P                          ",
			"factory_name": "緯興後整",
			"work_no": 6,
			"work_name": "后整",
			"pn_no": "1801PV006 ",
			"s_date": "2018-01-25T00:00:00.000Z",
			"e_date": "2018-01-27T00:00:00.000Z",
			"qty": 7000,
			"t_workers": 103,
			"levels": 3,
			"shipment_date": "2018-01-27T00:00:00.000Z"
		}, {
			"barcode": "1000000109        ",
			"factory_id": 22,
			"factory_code": "VK-K-E3.5.2                   ",
			"factory_name": "緯興E3.5.2                                  ",
			"work_no": 1,
			"work_name": "織機",
			"pn_no": "1801PV007 ",
			"s_date": "2017-12-17T00:00:00.000Z",
			"e_date": "2018-01-05T00:00:00.000Z",
			"qty": 31506,
			"t_workers": 985,
			"levels": 1,
			"shipment_date": "2018-01-20T00:00:00.000Z"
		}, {
			"barcode": "1000000063        ",
			"factory_id": 23,
			"factory_code": "VK-L-C                        ",
			"factory_name": "緯興粗針縫盤",
			"work_no": 3,
			"work_name": "縫挑",
			"pn_no": "1801PV007 ",
			"s_date": "2017-12-27T00:00:00.000Z",
			"e_date": "2018-01-16T00:00:00.000Z",
			"qty": 31506,
			"t_workers": 788,
			"levels": 2,
			"shipment_date": "2018-01-20T00:00:00.000Z"
		}, {
			"barcode": "1000000017        ",
			"factory_id": 25,
			"factory_code": "VK-P                          ",
			"factory_name": "緯興後整",
			"work_no": 6,
			"work_name": "后整",
			"pn_no": "1801PV007 ",
			"s_date": "2018-01-10T00:00:00.000Z",
			"e_date": "2018-01-20T00:00:00.000Z",
			"qty": 31506,
			"t_workers": 464,
			"levels": 3,
			"shipment_date": "2018-01-20T00:00:00.000Z"
		}, {
			"barcode": "1000000110        ",
			"factory_id": 22,
			"factory_code": "VK-K-E3.5.2                   ",
			"factory_name": "緯興E3.5.2                                  ",
			"work_no": 1,
			"work_name": "織機",
			"pn_no": "1801PV008 ",
			"s_date": "2018-01-07T00:00:00.000Z",
			"e_date": "2018-01-16T00:00:00.000Z",
			"qty": 2050,
			"t_workers": 65,
			"levels": 1,
			"shipment_date": "2018-01-20T00:00:00.000Z"
		}, {
			"barcode": "1000000064        ",
			"factory_id": 23,
			"factory_code": "VK-L-C                        ",
			"factory_name": "緯興粗針縫盤",
			"work_no": 3,
			"work_name": "縫挑",
			"pn_no": "1801PV008 ",
			"s_date": "2018-01-13T00:00:00.000Z",
			"e_date": "2018-01-19T00:00:00.000Z",
			"qty": 2050,
			"t_workers": 52,
			"levels": 2,
			"shipment_date": "2018-01-20T00:00:00.000Z"
		}, {
			"barcode": "1000000018        ",
			"factory_id": 25,
			"factory_code": "VK-P                          ",
			"factory_name": "緯興後整",
			"work_no": 6,
			"work_name": "后整",
			"pn_no": "1801PV008 ",
			"s_date": "2018-01-18T00:00:00.000Z",
			"e_date": "2018-01-20T00:00:00.000Z",
			"qty": 2050,
			"t_workers": 31,
			"levels": 3,
			"shipment_date": "2018-01-20T00:00:00.000Z"
		}, {
			"barcode": "1000000111        ",
			"factory_id": 22,
			"factory_code": "VK-K-E3.5.2                   ",
			"factory_name": "緯興E3.5.2                                  ",
			"work_no": 1,
			"work_name": "織機",
			"pn_no": "1801PV009 ",
			"s_date": "2018-01-07T00:00:00.000Z",
			"e_date": "2018-01-15T00:00:00.000Z",
			"qty": 4884,
			"t_workers": 153,
			"levels": 1,
			"shipment_date": "2018-01-20T00:00:00.000Z"
		}, {
			"barcode": "1000000065        ",
			"factory_id": 23,
			"factory_code": "VK-L-C                        ",
			"factory_name": "緯興粗針縫盤",
			"work_no": 3,
			"work_name": "縫挑",
			"pn_no": "1801PV009 ",
			"s_date": "2018-01-11T00:00:00.000Z",
			"e_date": "2018-01-20T00:00:00.000Z",
			"qty": 4884,
			"t_workers": 123,
			"levels": 2,
			"shipment_date": "2018-01-20T00:00:00.000Z"
		}, {
			"barcode": "1000000019        ",
			"factory_id": 25,
			"factory_code": "VK-P                          ",
			"factory_name": "緯興後整",
			"work_no": 6,
			"work_name": "后整",
			"pn_no": "1801PV009 ",
			"s_date": "2018-01-18T00:00:00.000Z",
			"e_date": "2018-01-20T00:00:00.000Z",
			"qty": 4884,
			"t_workers": 72,
			"levels": 3,
			"shipment_date": "2018-01-20T00:00:00.000Z"
		}, {
			"barcode": "1000000112        ",
			"factory_id": 22,
			"factory_code": "VK-K-E3.5.2                   ",
			"factory_name": "緯興E3.5.2                                  ",
			"work_no": 1,
			"work_name": "織機",
			"pn_no": "1801PV010 ",
			"s_date": "2018-01-08T00:00:00.000Z",
			"e_date": "2018-01-17T00:00:00.000Z",
			"qty": 2110,
			"t_workers": 66,
			"levels": 1,
			"shipment_date": "2018-01-20T00:00:00.000Z"
		}, {
			"barcode": "1000000066        ",
			"factory_id": 23,
			"factory_code": "VK-L-C                        ",
			"factory_name": "緯興粗針縫盤",
			"work_no": 3,
			"work_name": "縫挑",
			"pn_no": "1801PV010 ",
			"s_date": "2018-01-14T00:00:00.000Z",
			"e_date": "2018-01-20T00:00:00.000Z",
			"qty": 2110,
			"t_workers": 53,
			"levels": 2,
			"shipment_date": "2018-01-20T00:00:00.000Z"
		}, {
			"barcode": "1000000020        ",
			"factory_id": 25,
			"factory_code": "VK-P                          ",
			"factory_name": "緯興後整",
			"work_no": 6,
			"work_name": "后整",
			"pn_no": "1801PV010 ",
			"s_date": "2018-01-19T00:00:00.000Z",
			"e_date": "2018-01-20T00:00:00.000Z",
			"qty": 2110,
			"t_workers": 32,
			"levels": 3,
			"shipment_date": "2018-01-20T00:00:00.000Z"
		}, {
			"barcode": "1000000113        ",
			"factory_id": 22,
			"factory_code": "VK-K-E3.5.2                   ",
			"factory_name": "緯興E3.5.2                                  ",
			"work_no": 1,
			"work_name": "織機",
			"pn_no": "1801PV011 ",
			"s_date": "2017-12-30T00:00:00.000Z",
			"e_date": "2018-01-13T00:00:00.000Z",
			"qty": 8556,
			"t_workers": 268,
			"levels": 1,
			"shipment_date": "2018-01-20T00:00:00.000Z"
		}, {
			"barcode": "1000000067        ",
			"factory_id": 23,
			"factory_code": "VK-L-C                        ",
			"factory_name": "緯興粗針縫盤",
			"work_no": 3,
			"work_name": "縫挑",
			"pn_no": "1801PV011 ",
			"s_date": "2018-01-07T00:00:00.000Z",
			"e_date": "2018-01-19T00:00:00.000Z",
			"qty": 8556,
			"t_workers": 214,
			"levels": 2,
			"shipment_date": "2018-01-20T00:00:00.000Z"
		}, {
			"barcode": "1000000021        ",
			"factory_id": 25,
			"factory_code": "VK-P                          ",
			"factory_name": "緯興後整",
			"work_no": 6,
			"work_name": "后整",
			"pn_no": "1801PV011 ",
			"s_date": "2018-01-16T00:00:00.000Z",
			"e_date": "2018-01-20T00:00:00.000Z",
			"qty": 8556,
			"t_workers": 126,
			"levels": 3,
			"shipment_date": "2018-01-20T00:00:00.000Z"
		}, {
			"barcode": "1000000114        ",
			"factory_id": 22,
			"factory_code": "VK-K-E3.5.2                   ",
			"factory_name": "緯興E3.5.2                                  ",
			"work_no": 1,
			"work_name": "織機",
			"pn_no": "1801PV012 ",
			"s_date": "2018-01-09T00:00:00.000Z",
			"e_date": "2018-01-18T00:00:00.000Z",
			"qty": 300,
			"t_workers": 10,
			"levels": 1,
			"shipment_date": "2018-01-20T00:00:00.000Z"
		}, {
			"barcode": "1000000068        ",
			"factory_id": 23,
			"factory_code": "VK-L-C                        ",
			"factory_name": "緯興粗針縫盤",
			"work_no": 3,
			"work_name": "縫挑",
			"pn_no": "1801PV012 ",
			"s_date": "2018-01-14T00:00:00.000Z",
			"e_date": "2018-01-20T00:00:00.000Z",
			"qty": 300,
			"t_workers": 8,
			"levels": 2,
			"shipment_date": "2018-01-20T00:00:00.000Z"
		}, {
			"barcode": "1000000022        ",
			"factory_id": 25,
			"factory_code": "VK-P                          ",
			"factory_name": "緯興後整",
			"work_no": 6,
			"work_name": "后整",
			"pn_no": "1801PV012 ",
			"s_date": "2018-01-20T00:00:00.000Z",
			"e_date": "2018-01-20T00:00:00.000Z",
			"qty": 300,
			"t_workers": 5,
			"levels": 3,
			"shipment_date": "2018-01-20T00:00:00.000Z"
		}, {
			"barcode": "1000000115        ",
			"factory_id": 22,
			"factory_code": "VK-K-E3.5.2                   ",
			"factory_name": "緯興E3.5.2                                  ",
			"work_no": 1,
			"work_name": "織機",
			"pn_no": "1801PV013 ",
			"s_date": "2018-01-09T00:00:00.000Z",
			"e_date": "2018-01-18T00:00:00.000Z",
			"qty": 1050,
			"t_workers": 33,
			"levels": 1,
			"shipment_date": "2018-01-20T00:00:00.000Z"
		}, {
			"barcode": "1000000069        ",
			"factory_id": 23,
			"factory_code": "VK-L-C                        ",
			"factory_name": "緯興粗針縫盤",
			"work_no": 3,
			"work_name": "縫挑",
			"pn_no": "1801PV013 ",
			"s_date": "2018-01-14T00:00:00.000Z",
			"e_date": "2018-01-20T00:00:00.000Z",
			"qty": 1050,
			"t_workers": 27,
			"levels": 2,
			"shipment_date": "2018-01-20T00:00:00.000Z"
		}, {
			"barcode": "1000000023        ",
			"factory_id": 25,
			"factory_code": "VK-P                          ",
			"factory_name": "緯興後整",
			"work_no": 6,
			"work_name": "后整",
			"pn_no": "1801PV013 ",
			"s_date": "2018-01-19T00:00:00.000Z",
			"e_date": "2018-01-20T00:00:00.000Z",
			"qty": 1050,
			"t_workers": 16,
			"levels": 3,
			"shipment_date": "2018-01-20T00:00:00.000Z"
		}, {
			"barcode": "1000000116        ",
			"factory_id": 22,
			"factory_code": "VK-K-E3.5.2                   ",
			"factory_name": "緯興E3.5.2                                  ",
			"work_no": 1,
			"work_name": "織機",
			"pn_no": "1801PV014 ",
			"s_date": "2018-01-09T00:00:00.000Z",
			"e_date": "2018-01-18T00:00:00.000Z",
			"qty": 300,
			"t_workers": 10,
			"levels": 1,
			"shipment_date": "2018-01-20T00:00:00.000Z"
		}, {
			"barcode": "1000000070        ",
			"factory_id": 23,
			"factory_code": "VK-L-C                        ",
			"factory_name": "緯興粗針縫盤",
			"work_no": 3,
			"work_name": "縫挑",
			"pn_no": "1801PV014 ",
			"s_date": "2018-01-14T00:00:00.000Z",
			"e_date": "2018-01-20T00:00:00.000Z",
			"qty": 300,
			"t_workers": 8,
			"levels": 2,
			"shipment_date": "2018-01-20T00:00:00.000Z"
		}, {
			"barcode": "1000000024        ",
			"factory_id": 25,
			"factory_code": "VK-P                          ",
			"factory_name": "緯興後整",
			"work_no": 6,
			"work_name": "后整",
			"pn_no": "1801PV014 ",
			"s_date": "2018-01-20T00:00:00.000Z",
			"e_date": "2018-01-20T00:00:00.000Z",
			"qty": 300,
			"t_workers": 5,
			"levels": 3,
			"shipment_date": "2018-01-20T00:00:00.000Z"
		}, {
			"barcode": "1000000117        ",
			"factory_id": 17,
			"factory_code": "VK-K-14G                      ",
			"factory_name": "緯興14G                                     ",
			"work_no": 1,
			"work_name": "織機",
			"pn_no": "1801PV015 ",
			"s_date": "2017-12-26T00:00:00.000Z",
			"e_date": "2018-01-14T00:00:00.000Z",
			"qty": 8682,
			"t_workers": 790,
			"levels": 1,
			"shipment_date": "2018-01-20T00:00:00.000Z"
		}, {
			"barcode": "1000000071        ",
			"factory_id": 24,
			"factory_code": "VK-L-F                        ",
			"factory_name": "緯興幼針縫盤",
			"work_no": 3,
			"work_name": "縫挑",
			"pn_no": "1801PV015 ",
			"s_date": "2018-01-07T00:00:00.000Z",
			"e_date": "2018-01-19T00:00:00.000Z",
			"qty": 8682,
			"t_workers": 290,
			"levels": 2,
			"shipment_date": "2018-01-20T00:00:00.000Z"
		}, {
			"barcode": "1000000025        ",
			"factory_id": 25,
			"factory_code": "VK-P                          ",
			"factory_name": "緯興後整",
			"work_no": 6,
			"work_name": "后整",
			"pn_no": "1801PV015 ",
			"s_date": "2018-01-17T00:00:00.000Z",
			"e_date": "2018-01-20T00:00:00.000Z",
			"qty": 8682,
			"t_workers": 128,
			"levels": 3,
			"shipment_date": "2018-01-20T00:00:00.000Z"
		}, {
			"barcode": "1000000118        ",
			"factory_id": 17,
			"factory_code": "VK-K-14G                      ",
			"factory_name": "緯興14G                                     ",
			"work_no": 1,
			"work_name": "織機",
			"pn_no": "1801PV016 ",
			"s_date": "2018-01-08T00:00:00.000Z",
			"e_date": "2018-01-17T00:00:00.000Z",
			"qty": 904,
			"t_workers": 83,
			"levels": 1,
			"shipment_date": "2018-01-20T00:00:00.000Z"
		}, {
			"barcode": "1000000072        ",
			"factory_id": 24,
			"factory_code": "VK-L-F                        ",
			"factory_name": "緯興幼針縫盤",
			"work_no": 3,
			"work_name": "縫挑",
			"pn_no": "1801PV016 ",
			"s_date": "2018-01-14T00:00:00.000Z",
			"e_date": "2018-01-20T00:00:00.000Z",
			"qty": 904,
			"t_workers": 31,
			"levels": 2,
			"shipment_date": "2018-01-20T00:00:00.000Z"
		}, {
			"barcode": "1000000026        ",
			"factory_id": 25,
			"factory_code": "VK-P                          ",
			"factory_name": "緯興後整",
			"work_no": 6,
			"work_name": "后整",
			"pn_no": "1801PV016 ",
			"s_date": "2018-01-19T00:00:00.000Z",
			"e_date": "2018-01-20T00:00:00.000Z",
			"qty": 904,
			"t_workers": 14,
			"levels": 3,
			"shipment_date": "2018-01-20T00:00:00.000Z"
		}, {
			"barcode": "1000000132        ",
			"factory_id": 16,
			"factory_code": "VK-K-12G                      ",
			"factory_name": "緯興12G                                     ",
			"work_no": 1,
			"work_name": "織機",
			"pn_no": "1802MP001 ",
			"s_date": "2018-02-06T00:00:00.000Z",
			"e_date": "2018-02-20T00:00:00.000Z",
			"qty": 5951,
			"t_workers": 298,
			"levels": 1,
			"shipment_date": "2018-02-24T00:00:00.000Z"
		}, {
			"barcode": "1000000086        ",
			"factory_id": 24,
			"factory_code": "VK-L-F                        ",
			"factory_name": "緯興幼針縫盤",
			"work_no": 3,
			"work_name": "縫挑",
			"pn_no": "1802MP001 ",
			"s_date": "2018-02-15T00:00:00.000Z",
			"e_date": "2018-02-24T00:00:00.000Z",
			"qty": 5951,
			"t_workers": 199,
			"levels": 2,
			"shipment_date": "2018-02-24T00:00:00.000Z"
		}, {
			"barcode": "1000000040        ",
			"factory_id": 25,
			"factory_code": "VK-P                          ",
			"factory_name": "緯興後整",
			"work_no": 6,
			"work_name": "后整",
			"pn_no": "1802MP001 ",
			"s_date": "2018-02-23T00:00:00.000Z",
			"e_date": "2018-02-24T00:00:00.000Z",
			"qty": 5951,
			"t_workers": 88,
			"levels": 3,
			"shipment_date": "2018-02-24T00:00:00.000Z"
		}, {
			"barcode": "1000000133        ",
			"factory_id": 16,
			"factory_code": "VK-K-12G                      ",
			"factory_name": "緯興12G                                     ",
			"work_no": 1,
			"work_name": "織機",
			"pn_no": "1802MP005 ",
			"s_date": "2018-02-11T00:00:00.000Z",
			"e_date": "2018-02-20T00:00:00.000Z",
			"qty": 1099,
			"t_workers": 55,
			"levels": 1,
			"shipment_date": "2018-02-24T00:00:00.000Z"
		}, {
			"barcode": "1000000087        ",
			"factory_id": 24,
			"factory_code": "VK-L-F                        ",
			"factory_name": "緯興幼針縫盤",
			"work_no": 3,
			"work_name": "縫挑",
			"pn_no": "1802MP005 ",
			"s_date": "2018-02-17T00:00:00.000Z",
			"e_date": "2018-02-23T00:00:00.000Z",
			"qty": 1099,
			"t_workers": 37,
			"levels": 2,
			"shipment_date": "2018-02-24T00:00:00.000Z"
		}, {
			"barcode": "1000000041        ",
			"factory_id": 25,
			"factory_code": "VK-P                          ",
			"factory_name": "緯興後整",
			"work_no": 6,
			"work_name": "后整",
			"pn_no": "1802MP005 ",
			"s_date": "2018-02-22T00:00:00.000Z",
			"e_date": "2018-02-24T00:00:00.000Z",
			"qty": 1099,
			"t_workers": 17,
			"levels": 3,
			"shipment_date": "2018-02-24T00:00:00.000Z"
		}, {
			"barcode": "1000000129        ",
			"factory_id": 16,
			"factory_code": "VK-K-12G                      ",
			"factory_name": "緯興12G                                     ",
			"work_no": 1,
			"work_name": "織機",
			"pn_no": "1802MP015 ",
			"s_date": "2018-01-17T00:00:00.000Z",
			"e_date": "2018-01-31T00:00:00.000Z",
			"qty": 9665,
			"t_workers": 421,
			"levels": 1,
			"shipment_date": "2018-02-07T00:00:00.000Z"
		}, {
			"barcode": "1000000083        ",
			"factory_id": 24,
			"factory_code": "VK-L-F                        ",
			"factory_name": "緯興幼針縫盤",
			"work_no": 3,
			"work_name": "縫挑",
			"pn_no": "1802MP015 ",
			"s_date": "2018-01-25T00:00:00.000Z",
			"e_date": "2018-02-06T00:00:00.000Z",
			"qty": 9665,
			"t_workers": 323,
			"levels": 2,
			"shipment_date": "2018-02-07T00:00:00.000Z"
		}, {
			"barcode": "1000000037        ",
			"factory_id": 25,
			"factory_code": "VK-P                          ",
			"factory_name": "緯興後整",
			"work_no": 6,
			"work_name": "后整",
			"pn_no": "1802MP015 ",
			"s_date": "2018-02-03T00:00:00.000Z",
			"e_date": "2018-02-07T00:00:00.000Z",
			"qty": 9665,
			"t_workers": 143,
			"levels": 3,
			"shipment_date": "2018-02-07T00:00:00.000Z"
		}, {
			"barcode": "1000000136        ",
			"factory_id": 16,
			"factory_code": "VK-K-12G                      ",
			"factory_name": "緯興12G                                     ",
			"work_no": 1,
			"work_name": "織機",
			"pn_no": "1803MP004 ",
			"s_date": "2018-01-18T00:00:00.000Z",
			"e_date": "2018-02-16T00:00:00.000Z",
			"qty": 62101,
			"t_workers": 2701,
			"levels": 1,
			"shipment_date": "2018-03-10T00:00:00.000Z"
		}, {
			"barcode": "1000000090        ",
			"factory_id": 24,
			"factory_code": "VK-L-F                        ",
			"factory_name": "緯興幼針縫盤",
			"work_no": 3,
			"work_name": "縫挑",
			"pn_no": "1803MP004 ",
			"s_date": "2018-02-01T00:00:00.000Z",
			"e_date": "2018-03-05T00:00:00.000Z",
			"qty": 62101,
			"t_workers": 2071,
			"levels": 2,
			"shipment_date": "2018-03-10T00:00:00.000Z"
		}, {
			"barcode": "1000000044        ",
			"factory_id": 25,
			"factory_code": "VK-P                          ",
			"factory_name": "緯興後整",
			"work_no": 6,
			"work_name": "后整",
			"pn_no": "1803MP004 ",
			"s_date": "2018-02-24T00:00:00.000Z",
			"e_date": "2018-03-10T00:00:00.000Z",
			"qty": 62101,
			"t_workers": 914,
			"levels": 3,
			"shipment_date": "2018-03-10T00:00:00.000Z"
		}, {
			"barcode": "1000000138        ",
			"factory_id": 16,
			"factory_code": "VK-K-12G                      ",
			"factory_name": "緯興12G                                     ",
			"work_no": 1,
			"work_name": "織機",
			"pn_no": "1803MP005 ",
			"s_date": "2018-03-18T00:00:00.000Z",
			"e_date": "2018-03-27T00:00:00.000Z",
			"qty": 2941,
			"t_workers": 128,
			"levels": 1,
			"shipment_date": "2018-03-31T00:00:00.000Z"
		}, {
			"barcode": "1000000092        ",
			"factory_id": 24,
			"factory_code": "VK-L-F                        ",
			"factory_name": "緯興幼針縫盤",
			"work_no": 3,
			"work_name": "縫挑",
			"pn_no": "1803MP005 ",
			"s_date": "2018-03-23T00:00:00.000Z",
			"e_date": "2018-03-31T00:00:00.000Z",
			"qty": 2941,
			"t_workers": 99,
			"levels": 2,
			"shipment_date": "2018-03-31T00:00:00.000Z"
		}, {
			"barcode": "1000000046        ",
			"factory_id": 25,
			"factory_code": "VK-P                          ",
			"factory_name": "緯興後整",
			"work_no": 6,
			"work_name": "后整",
			"pn_no": "1803MP005 ",
			"s_date": "2018-03-30T00:00:00.000Z",
			"e_date": "2018-03-31T00:00:00.000Z",
			"qty": 2941,
			"t_workers": 44,
			"levels": 3,
			"shipment_date": "2018-03-31T00:00:00.000Z"
		}, {
			"barcode": "1000000135        ",
			"factory_id": 16,
			"factory_code": "VK-K-12G                      ",
			"factory_name": "緯興12G                                     ",
			"work_no": 1,
			"work_name": "織機",
			"pn_no": "1803MP006 ",
			"s_date": "2018-02-27T00:00:00.000Z",
			"e_date": "2018-03-08T00:00:00.000Z",
			"qty": 890,
			"t_workers": 39,
			"levels": 1,
			"shipment_date": "2018-03-10T00:00:00.000Z"
		}, {
			"barcode": "1000000089        ",
			"factory_id": 24,
			"factory_code": "VK-L-F                        ",
			"factory_name": "緯興幼針縫盤",
			"work_no": 3,
			"work_name": "縫挑",
			"pn_no": "1803MP006 ",
			"s_date": "2018-03-05T00:00:00.000Z",
			"e_date": "2018-03-10T00:00:00.000Z",
			"qty": 890,
			"t_workers": 30,
			"levels": 2,
			"shipment_date": "2018-03-10T00:00:00.000Z"
		}, {
			"barcode": "1000000043        ",
			"factory_id": 25,
			"factory_code": "VK-P                          ",
			"factory_name": "緯興後整",
			"work_no": 6,
			"work_name": "后整",
			"pn_no": "1803MP006 ",
			"s_date": "2018-03-09T00:00:00.000Z",
			"e_date": "2018-03-10T00:00:00.000Z",
			"qty": 890,
			"t_workers": 14,
			"levels": 3,
			"shipment_date": "2018-03-10T00:00:00.000Z"
		}, {
			"barcode": "1000000134        ",
			"factory_id": 16,
			"factory_code": "VK-K-12G                      ",
			"factory_name": "緯興12G                                     ",
			"work_no": 1,
			"work_name": "織機",
			"pn_no": "1803MP007 ",
			"s_date": "2018-02-21T00:00:00.000Z",
			"e_date": "2018-03-02T00:00:00.000Z",
			"qty": 1545,
			"t_workers": 68,
			"levels": 1,
			"shipment_date": "2018-03-06T00:00:00.000Z"
		}, {
			"barcode": "1000000088        ",
			"factory_id": 24,
			"factory_code": "VK-L-F                        ",
			"factory_name": "緯興幼針縫盤",
			"work_no": 3,
			"work_name": "縫挑",
			"pn_no": "1803MP007 ",
			"s_date": "2018-02-27T00:00:00.000Z",
			"e_date": "2018-03-05T00:00:00.000Z",
			"qty": 1545,
			"t_workers": 52,
			"levels": 2,
			"shipment_date": "2018-03-06T00:00:00.000Z"
		}, {
			"barcode": "1000000042        ",
			"factory_id": 25,
			"factory_code": "VK-P                          ",
			"factory_name": "緯興後整",
			"work_no": 6,
			"work_name": "后整",
			"pn_no": "1803MP007 ",
			"s_date": "2018-03-04T00:00:00.000Z",
			"e_date": "2018-03-06T00:00:00.000Z",
			"qty": 1545,
			"t_workers": 23,
			"levels": 3,
			"shipment_date": "2018-03-06T00:00:00.000Z"
		}, {
			"barcode": "1000000137        ",
			"factory_id": 16,
			"factory_code": "VK-K-12G                      ",
			"factory_name": "緯興12G                                     ",
			"work_no": 1,
			"work_name": "織機",
			"pn_no": "1803MP008 ",
			"s_date": "2018-02-21T00:00:00.000Z",
			"e_date": "2018-03-07T00:00:00.000Z",
			"qty": 6977,
			"t_workers": 304,
			"levels": 1,
			"shipment_date": "2018-03-14T00:00:00.000Z"
		}, {
			"barcode": "1000000091        ",
			"factory_id": 24,
			"factory_code": "VK-L-F                        ",
			"factory_name": "緯興幼針縫盤",
			"work_no": 3,
			"work_name": "縫挑",
			"pn_no": "1803MP008 ",
			"s_date": "2018-03-01T00:00:00.000Z",
			"e_date": "2018-03-13T00:00:00.000Z",
			"qty": 6977,
			"t_workers": 233,
			"levels": 2,
			"shipment_date": "2018-03-14T00:00:00.000Z"
		}, {
			"barcode": "1000000045        ",
			"factory_id": 25,
			"factory_code": "VK-P                          ",
			"factory_name": "緯興後整",
			"work_no": 6,
			"work_name": "后整",
			"pn_no": "1803MP008 ",
			"s_date": "2018-03-12T00:00:00.000Z",
			"e_date": "2018-03-14T00:00:00.000Z",
			"qty": 6977,
			"t_workers": 103,
			"levels": 3,
			"shipment_date": "2018-03-14T00:00:00.000Z"
		}
	],
	"datas": [
		{
			"barcode": "1000000009        ",
			"factory_id": 25,
			"factory_code": "VK-P                          ",
			"factory_name": "緯興後整",
			"work_no": 6,
			"work_name": "后整",
			"pn_no": "1712MM002 ",
			"s_date": "2017-12-27T00:00:00.000Z",
			"e_date": "2018-01-09T00:00:00.000Z",
			"qty": 58962,
			"t_workers": 868,
			"levels": 3,
			"p_date": "2017-12-31T00:00:00.000Z",
			"workers": 62,
			"owe_workers": 1,
			"shipment_date": "2018-01-09T00:00:00.000Z"
		}, {
			"barcode": "1000000122        ",
			"factory_id": 16,
			"factory_code": "VK-K-12G                      ",
			"factory_name": "緯興12G                                     ",
			"work_no": 1,
			"work_name": "織機",
			"pn_no": "1801KP003 ",
			"s_date": "2018-01-10T00:00:00.000Z",
			"e_date": "2018-01-24T00:00:00.000Z",
			"qty": 7990,
			"t_workers": 348,
			"levels": 1,
			"p_date": "2018-01-17T00:00:00.000Z",
			"workers": 24,
			"owe_workers": 2,
			"shipment_date": "2018-01-30T00:00:00.000Z"
		}, {
			"barcode": "1000000001        ",
			"factory_id": 25,
			"factory_code": "VK-P                          ",
			"factory_name": "緯興後整",
			"work_no": 6,
			"work_name": "后整",
			"pn_no": "1801MP001 ",
			"s_date": "2017-12-27T00:00:00.000Z",
			"e_date": "2018-01-06T00:00:00.000Z",
			"qty": 39513,
			"t_workers": 582,
			"levels": 3,
			"p_date": "2017-12-31T00:00:00.000Z",
			"workers": 58,
			"owe_workers": 1,
			"shipment_date": "2018-01-06T00:00:00.000Z"
		}, {
			"barcode": "1000000003        ",
			"factory_id": 25,
			"factory_code": "VK-P                          ",
			"factory_name": "緯興後整",
			"work_no": 6,
			"work_name": "后整",
			"pn_no": "1801MP005 ",
			"s_date": "2017-12-27T00:00:00.000Z",
			"e_date": "2018-01-06T00:00:00.000Z",
			"qty": 38557,
			"t_workers": 568,
			"levels": 3,
			"p_date": "2017-12-31T00:00:00.000Z",
			"workers": 56,
			"owe_workers": 1,
			"shipment_date": "2018-01-06T00:00:00.000Z"
		}, {
			"barcode": "1000000120        ",
			"factory_id": 16,
			"factory_code": "VK-K-12G                      ",
			"factory_name": "緯興12G                                     ",
			"work_no": 1,
			"work_name": "織機",
			"pn_no": "1801MP007 ",
			"s_date": "2018-01-16T00:00:00.000Z",
			"e_date": "2018-01-24T00:00:00.000Z",
			"qty": 1716,
			"t_workers": 72,
			"levels": 1,
			"p_date": "2018-01-17T00:00:00.000Z",
			"workers": 8,
			"owe_workers": 2,
			"shipment_date": "2018-01-27T00:00:00.000Z"
		}, {
			"barcode": "1000000121        ",
			"factory_id": 16,
			"factory_code": "VK-K-12G                      ",
			"factory_name": "緯興12G                                     ",
			"work_no": 1,
			"work_name": "織機",
			"pn_no": "1801MP008 ",
			"s_date": "2018-01-13T00:00:00.000Z",
			"e_date": "2018-01-22T00:00:00.000Z",
			"qty": 2641,
			"t_workers": 102,
			"levels": 1,
			"p_date": "2018-01-17T00:00:00.000Z",
			"workers": 11,
			"owe_workers": 2,
			"shipment_date": "2018-01-27T00:00:00.000Z"
		}, {
			"barcode": "1000000124        ",
			"factory_id": 16,
			"factory_code": "VK-K-12G                      ",
			"factory_name": "緯興12G                                     ",
			"work_no": 1,
			"work_name": "織機",
			"pn_no": "1801MP009 ",
			"s_date": "2018-01-18T00:00:00.000Z",
			"e_date": "2018-01-27T00:00:00.000Z",
			"qty": 1512,
			"t_workers": 59,
			"levels": 1,
			"p_date": "2018-01-25T00:00:00.000Z",
			"workers": 6,
			"owe_workers": 2,
			"shipment_date": "2018-01-31T00:00:00.000Z"
		}, {
			"barcode": "1000000125        ",
			"factory_id": 16,
			"factory_code": "VK-K-12G                      ",
			"factory_name": "緯興12G                                     ",
			"work_no": 1,
			"work_name": "織機",
			"pn_no": "1801MP010 ",
			"s_date": "2017-12-28T00:00:00.000Z",
			"e_date": "2018-01-21T00:00:00.000Z",
			"qty": 36701,
			"t_workers": 1596,
			"levels": 1,
			"p_date": "2018-01-17T00:00:00.000Z",
			"workers": 66,
			"owe_workers": 2,
			"shipment_date": "2018-02-03T00:00:00.000Z"
		}, {
			"barcode": "1000000126        ",
			"factory_id": 16,
			"factory_code": "VK-K-12G                      ",
			"factory_name": "緯興12G                                     ",
			"work_no": 1,
			"work_name": "織機",
			"pn_no": "1801MP011 ",
			"s_date": "2018-01-13T00:00:00.000Z",
			"e_date": "2018-01-27T00:00:00.000Z",
			"qty": 8325,
			"t_workers": 362,
			"levels": 1,
			"p_date": "2018-01-17T00:00:00.000Z",
			"workers": 25,
			"owe_workers": 2,
			"shipment_date": "2018-02-03T00:00:00.000Z"
		}, {
			"barcode": "1000000126        ",
			"factory_id": 16,
			"factory_code": "VK-K-12G                      ",
			"factory_name": "緯興12G                                     ",
			"work_no": 1,
			"work_name": "織機",
			"pn_no": "1801MP011 ",
			"s_date": "2018-01-13T00:00:00.000Z",
			"e_date": "2018-01-27T00:00:00.000Z",
			"qty": 8325,
			"t_workers": 362,
			"levels": 1,
			"p_date": "2018-01-25T00:00:00.000Z",
			"workers": 25,
			"owe_workers": 2,
			"shipment_date": "2018-02-03T00:00:00.000Z"
		}, {
			"barcode": "1000000127        ",
			"factory_id": 16,
			"factory_code": "VK-K-12G                      ",
			"factory_name": "緯興12G                                     ",
			"work_no": 1,
			"work_name": "織機",
			"pn_no": "1801MP012 ",
			"s_date": "2018-01-13T00:00:00.000Z",
			"e_date": "2018-01-27T00:00:00.000Z",
			"qty": 8765,
			"t_workers": 382,
			"levels": 1,
			"p_date": "2018-01-17T00:00:00.000Z",
			"workers": 27,
			"owe_workers": 2,
			"shipment_date": "2018-02-03T00:00:00.000Z"
		}, {
			"barcode": "1000000127        ",
			"factory_id": 16,
			"factory_code": "VK-K-12G                      ",
			"factory_name": "緯興12G                                     ",
			"work_no": 1,
			"work_name": "織機",
			"pn_no": "1801MP012 ",
			"s_date": "2018-01-13T00:00:00.000Z",
			"e_date": "2018-01-27T00:00:00.000Z",
			"qty": 8765,
			"t_workers": 382,
			"levels": 1,
			"p_date": "2018-01-25T00:00:00.000Z",
			"workers": 27,
			"owe_workers": 2,
			"shipment_date": "2018-02-03T00:00:00.000Z"
		}, {
			"barcode": "1000000128        ",
			"factory_id": 16,
			"factory_code": "VK-K-12G                      ",
			"factory_name": "緯興12G                                     ",
			"work_no": 1,
			"work_name": "織機",
			"pn_no": "1801MP013 ",
			"s_date": "2018-01-04T00:00:00.000Z",
			"e_date": "2018-01-23T00:00:00.000Z",
			"qty": 17985,
			"t_workers": 782,
			"levels": 1,
			"p_date": "2018-01-17T00:00:00.000Z",
			"workers": 41,
			"owe_workers": 2,
			"shipment_date": "2018-02-03T00:00:00.000Z"
		}, {
			"barcode": "1000000123        ",
			"factory_id": 16,
			"factory_code": "VK-K-12G                      ",
			"factory_name": "緯興12G                                     ",
			"work_no": 1,
			"work_name": "織機",
			"pn_no": "1801MP014 ",
			"s_date": "2018-01-09T00:00:00.000Z",
			"e_date": "2018-01-23T00:00:00.000Z",
			"qty": 8718,
			"t_workers": 380,
			"levels": 1,
			"p_date": "2018-01-17T00:00:00.000Z",
			"workers": 27,
			"owe_workers": 2,
			"shipment_date": "2018-01-30T00:00:00.000Z"
		}, {
			"barcode": "1000000129        ",
			"factory_id": 16,
			"factory_code": "VK-K-12G                      ",
			"factory_name": "緯興12G                                     ",
			"work_no": 1,
			"work_name": "織機",
			"pn_no": "1802MP015 ",
			"s_date": "2018-01-17T00:00:00.000Z",
			"e_date": "2018-01-31T00:00:00.000Z",
			"qty": 9665,
			"t_workers": 421,
			"levels": 1,
			"p_date": "2018-01-17T00:00:00.000Z",
			"workers": 30,
			"owe_workers": 2,
			"shipment_date": "2018-02-07T00:00:00.000Z"
		}, {
			"barcode": "1000000129        ",
			"factory_id": 16,
			"factory_code": "VK-K-12G                      ",
			"factory_name": "緯興12G                                     ",
			"work_no": 1,
			"work_name": "織機",
			"pn_no": "1802MP015 ",
			"s_date": "2018-01-17T00:00:00.000Z",
			"e_date": "2018-01-31T00:00:00.000Z",
			"qty": 9665,
			"t_workers": 421,
			"levels": 1,
			"p_date": "2018-01-25T00:00:00.000Z",
			"workers": 30,
			"owe_workers": 2,
			"shipment_date": "2018-02-07T00:00:00.000Z"
		}, {
			"barcode": "1000000136        ",
			"factory_id": 16,
			"factory_code": "VK-K-12G                      ",
			"factory_name": "緯興12G                                     ",
			"work_no": 1,
			"work_name": "織機",
			"pn_no": "1803MP004 ",
			"s_date": "2018-01-18T00:00:00.000Z",
			"e_date": "2018-02-16T00:00:00.000Z",
			"qty": 62101,
			"t_workers": 2701,
			"levels": 1,
			"p_date": "2018-01-25T00:00:00.000Z",
			"workers": 93,
			"owe_workers": 2,
			"shipment_date": "2018-03-10T00:00:00.000Z"
		}
	]
}